{
    "name": "Mangareader",
    "url": "http://www.mangareader.net/",
    "version": "0.1",
    "description": "Read your favorite manga scans and scanlations online at Manga Reader. Read Manga Online, Absolutely Free and Updated Daily"
}
